{
    "PERMISSIONS": 523365392,
    "DEFAULT_BOT_CHANNEL": "bot_testing",
    "DEFAULT_ADMIN_ROLE": "RaceBot Admin",
    "DEFAULT_MAX_VOICE": 4,
    "DEFAULT_MAX_RACES": 3,
    "DEFAULT_RACE_CATEGORY": "Races"
}