{
    "cookieReactions": [
        "MMMMM... peanut butter!",
        "MMMMM... chocolate chip!",
        "MMMMM... snickerdoodle!",
        "MMMMM... oatmeal raisin!",
        "MMMMM... sugar cookie!",
        "MMMMM... gingersnap!",
        "MMMMM... shortbread!",
        "MMMMM... whoopie pie!",
        "MMMMM... kiss cookie!",
        "MMMMM... thumbprint!",
        "MMMMM... pinwheel!",
        "MMMMM... macaroon!",
        "MMMMM... gingerbread!",
        "MMMMM... macaron!",
        "MMMMM... cream filled!",
        "MMMMM... macadamia nut!",        
        "It was a fortune cookie! Your fortune is <redacted>!",
        "Someone called this biscotti a cookie but it was delicious anyway.",
        "Wait that wasn't a cookie, how'd a scone get in here?",
        "You think throwing it at an enemy may have been more effective.",
        "Well, that's gone.",
        "You are filled with **DETERMINATION**",
        "You thought it was chocolate chip but it was oatmeal raisin. Your disappointment is showing.",        
        "A practical joker replaced the sugar in the recipe with salt, your tongue now hates you.",
        "Cookies are not the only right in this world... some day... you will see...",
        "Engraved into the back of the cookie was the name 'SchalaKitty'.  You fear for what might happen next.",
        "A blue monster stares at you angrily.  You fear you may have upset them.",
        "You believe it was the wrong kind of cookie.",
        "Or at least you tried to... you do not believe it was edible.",
        "You vaguely remember seeing that same cookie on the floor earlier.",
        "It was in the shape of a cat!",
        "You monster.",
        "An elderly wizard scolds you mumbling something about points.",
        "That was no ordinary cookie, it was a SUPER cookie!",
        "You collapse to the ground and wake up later in your pajamas in some strange land called Magicant.",
        "This causes a strange eye-like creature to summon a mechanical dragon.",
        "You have a sudden desire to paint everything blue.",
        "A strange green dinosaur looks at you curiously.",
        "This :cookie: is not compatible with your operating system.",
        "Wait, how did a jelly filled donut get in here?",
        "MMMMM... cookie!",
        "You've completely forgotten all about what the Oracle said, you don't believe in that crap.",
        "It was in the shape of a tree!",
        "It was in the shape of a person!",
        "It was in the shape of a car!",
        "It was in the shape of a Super Famicom :tm: cartridge!",
        "You forgot what you were doing.",
        "Something called a 'grue' is trying... has succeeded in eating you.",
        "[object Object]",
        "T̸̛̞̩͎͚͙͛̈́̓̈̍̎̏͌͘͝͠h̴͇̯̰̘̝͙̽̊͋̀͛̈͋̉͆̎͛̀͘͘͠a̶̛̦̫̮̦͎̲̻̅̓̂͂̇̓̋̒̀̿̂̄̃͠ẗ̴̛͍̳͉̪̬̝̻͙͍̀̀̇̀̔̐̍̀ ̶̞̥͖̰̥͇̎͊̏̈̓̎͝c̴̛̼̹̺̞̟͕̬̲̲̊͐̔̅͌̇̿̚͜o̵̱̬̐͐̒̓̔̋̃͠ö̵̢͚̫̠́́͂̆͂̓̌͂̓͝͝ķ̵̳͖̯͇̻͖͚͍̹̟͓͂̈́̐̅̀͝͝í̸̧̢̜̟̖̫̹̝̗̫͎̥͉̝̾̆̊́̄̉̂͌͆̉͜e̷̛̞͔̘̪̣͎̥̲̰̗̿̂̿͒̎̃͝ͅ ̸̧͚̳͎͖̜͑̅̈͑͗̃o̵̘͓͎̖͈̝͓̰̲̦͚͎̒̔̐̀͜ͅñ̴̨̡̼͉͓̺̫̲̻͖̒̉͌̌̓̍͋͘͝c̶̺̼̫̼̖̤͋͒̆̾ͅe̴̡͓͉̼̤͖̊̾̂̏̍̚̕͘ ̵̢̛̳͕̘͓̥̆̍̈́̃̍͋̒̆̌͗̇́̌̽b̶͚̙̘̜̞̤͖̙̺̳̉͐̂͛̆̽̕͝ę̸̛̭͙͙̪̼͛͘l̸̨̧̹̠͎̺̱̭̰͈̰̗͈̗̝̃̽̃̀͆̈̒͋͒̌̆̈́͒͐o̷͇̝̥̞̻͚̤̙̲̳̓͂̾̽̕͘̚͜͜n̶̞̦̝̠̈́̃́̌̍̐ͅͅġ̷̡̧͔͕̰̱̥̳́̈́̓̆̀̈́͗̈́̈́̆͘͜͝e̵̡̡̡͙̼̫̖̪̖͒̕d̶̝̘̗͔̯̘̰̮̟͖̮͆̋̅̄́̀̆̑̑̀̅̍͋ͅ ̵̢̯̳͋̑̾̾̋̉̔̓̑̚͝t̵̢̟̱̰̥̲̱̃̀̽̿̽̋͜͝o̶̧̧̰͇̖̳͇͔̖̪͐͂́͘͝ ̸̰̏͑̀͌͘Z̶̢͎͚̳̱͉͍̫̭̰̰͔̥͕͆͋͜Ȃ̴̲̗̤̞͕̌̀̎̓̓̆͑̐̊͜ͅĹ̶̛̘̗̰̥͎͚̫̱͎̦̻̳̪͑̍̀̊̓̀̇͒͘̚̕ͅG̷͈̙̭͖̘͌̌̈́̓̈Ő̴̩͚̀̊̈̎̊̔͋̓͆͊͝.̸̜͉̤̠͌̆̓",
        "<Insert cookie reaction text here>",
        "It's in the shape of a hand and filled with... greek salad?",
        "MMMMM... (Insert Company Name Here)'s famous (Insert Product Name Here)!",
        "That wasn't an ordinary cookie, it contained a Pomegranate of Power!",
        "It was cursed. You lose 15 points in each of your stats.",
        "You fall into a deep slumber and all of Zeromus's alternate sprites are revealed to you. Alas, you forget all about it once you wake up.",
        "Or at least you tried to, a small green creature steals it from you using magical powers.",
        "It was in the shape of a metroid!",
        "It was in the shape of a dodecahedron!",
        "It was in the shape of a Holiday Tree :tm:",
        "In some places, this is called a biscuit!",
        "You taste a lot of saffron.  How much did this cookie cost to make!?",
        "That wasn't a cookie at all, how did a crab cake get in here?",
        "MMMMM... pumpkin spiced!",
        "<your message here>",
        "MMMMM... A delicious marble cookie baked by SchalaKitty hirself!",
        "Did you know that the critically acclaimed MMORPG Final Fantasy XIV has a free trial, and includes the entirety of A Realm Reborn AND the award-winning Heavensward and Stormblood expansions up to level 70 with no restrictions on playtime? Sign up, and enjoy Eorzea today! https://secure.square-enix.com/account/app/svc/ffxivregister?lng=en-us",
        "MMMMM... Legally distinct cream filled cookie!",
        "MMMMM... Coffee Crisp!",
        "Or at least you tried to, it turned into mist.",
        "Or at least you tried to, you forgot to accept all cookies!",
        "MMMMM... wait, is that potato?"
    ]
}